ISSS626-GAA - In-Class Exercise 01
…
Let’s take a look at the transformed data frame:

popdata2023

# A tibble: 332 × 7
   PA         SZ                     YOUNG `ECONOMY ACTIVE`  AGED TOTAL DEPEND…¹
   <chr>      <chr>                  <dbl>            <dbl> <dbl> <dbl>    <dbl>
 1 Ang Mo Kio Ang Mo Kio Town Centre  1240             2830   890  4960    0.753
 2 Ang Mo Kio Cheng San               5150            15600  6580 27330    0.752
 3 Ang Mo Kio Chong Boon              4620            14120  7060 25800    0.827
 4 Ang Mo Kio Kebun Bahru             4320            12400  5640 22360    0.803
 5 Ang Mo Kio Sembawang Hills         1840             3670  1420  6930    0.888
 6 Ang Mo Kio Shangri-La              3810             9600  4320 17730    0.847
 7 Ang Mo Kio Tagore                  1870             4320  1790  7980    0.847
 8 Ang Mo Kio Townsville              3750            11090  5390 20230    0.824
 9 Ang Mo Kio Yio Chu Kang               0                0     0     0  NaN    
10 Ang Mo Kio Yio Chu Kang East       1090             2410   880  4380    0.817
# … with 322 more rows, and abbreviated variable name ¹​DEPENDENCY
…
