ISSS626-GAA - Take-Home Exercise 01
…
The message above reveals that there are a total of 81735 rows and 18 fields in accidents tibble data frame.

4. Data Wrangling

4.1 Aspatial Data Wrangling

4.1.1 Contents of Aspatial Data

Let us examine if the accidents data was imported correctly using the list() function of Base R.

list(accidents)

[[1]]
# A tibble: 81,735 × 18
   acc_code incident_datetime   report_datetime     provi…¹ provi…² agency route
      <dbl> <dttm>              <dttm>              <chr>   <chr>   <chr>  <chr>
 1   571905 2019-01-01 00:00:00 2019-01-02 06:11:00 ลพบุรี    Loburi  depar… แยกท…
 2  3790870 2019-01-01 00:03:00 2020-02-20 13:48:00 อุบลราช… Ubon R… depar… เดชอุ…
 3   599075 2019-01-01 00:05:00 2019-01-01 10:35:00 ประจวบ… Prachu… depar… ปราณ…
 4   571924 2019-01-01 00:20:00 2019-01-02 05:12:00 เชียงใหม่ Chiang… depar… เชื่อม…
 5   599523 2019-01-01 00:25:00 2019-01-04 09:42:00 นครสวร… Nakhon… depar… เกยไ…
 6   571982 2019-01-01 00:30:00 2019-01-07 12:46:00 แม่ฮ่องส… Mae Ho… depar… แยกท…
 7   612782 2019-01-01 00:30:00 2019-10-25 14:25:00 ชุมพร    Chumph… depar… ท่าทอ…
 8   599235 2019-01-01 00:35:00 2019-01-02 16:23:00 สิงห์บุรี   Sing B… depar… ทางแ…
 9   600643 2019-01-01 00:40:00 2019-01-11 10:01:00 สงขลา   Songkh… depar… ปากจ่…
10   599105 2019-01-01 00:45:00 2019-01-01 10:11:00 ตราด    Trat    depar… บ่อไร่…
# … with 81,725 more rows, 11 more variables: vehicle_type <chr>,
#   presumed_cause <chr>, accident_type <chr>,
#   number_of_vehicles_involved <dbl>, number_of_fatalities <dbl>,
#   number_of_injuries <dbl>, weather_condition <chr>, latitude <dbl>,
#   longitude <dbl>, road_description <chr>, slope_description <chr>, and
#   abbreviated variable names ¹​province_th, ²​province_en

The output reinforces that the accidents tibble data frame consists of 81735 rows and 18 columns. Moving forward, we will be utilizing two useful columns - latitude and longitude. Note that they are in decimal degree format. Let’s assume that the data is in wgs84 coordinates system.

4.1.2 Handling Missing Values

The filter() function of dplyr package can be used to verify if our key columns - latitude and longitude, have any missing values.

accidents %>%
  filter(is.na(longitude) | longitude == "",
         is.na(latitude)  | latitude == "")

# A tibble: 359 × 18
   acc_code incident_datetime   report_datetime     provi…¹ provi…² agency route
      <dbl> <dttm>              <dttm>              <chr>   <chr>   <chr>  <chr>
 1   823206 2019-01-02 21:30:00 2019-01-03 06:20:00 ไม่ทราบ  unknown depar… แยกท…
 2   823207 2019-05-07 03:15:00 2019-05-14 15:37:00 ไม่ทราบ  unknown depar… แยกท…
 3   823208 2019-05-15 11:45:00 2019-06-10 10:07:00 ไม่ทราบ  unknown depar… แยกท…
 4   823209 2019-05-15 13:50:00 2019-06-10 10:04:00 ไม่ทราบ  unknown depar… แยกท…
 5   823210 2019-08-01 08:00:00 2019-09-25 11:26:00 ไม่ทราบ  unknown depar… แยกท…
 6   823211 2019-12-28 02:30:00 2019-12-29 06:04:00 ไม่ทราบ  unknown depar… แยกท…
 7  1306220 2020-04-03 13:30:00 2020-05-05 12:50:00 ไม่ทราบ  unknown depar… แยกท…
 8  2602971 2020-11-21 18:27:00 2020-11-22 11:31:00 ไม่ทราบ  unknown depar… แยกท…
 9  5099638 2021-01-01 21:33:00 2021-11-02 07:52:00 กรุงเทพ… Bangkok expre… แจ้งวั…
10  5099647 2021-01-10 14:26:00 2021-11-02 07:53:00 กรุงเทพ… Bangkok expre… ดินแด…
# … with 349 more rows, 11 more variables: vehicle_type <chr>,
#   presumed_cause <chr>, accident_type <chr>,
#   number_of_vehicles_involved <dbl>, number_of_fatalities <dbl>,
#   number_of_injuries <dbl>, weather_condition <chr>, latitude <dbl>,
#   longitude <dbl>, road_description <chr>, slope_description <chr>, and
#   abbreviated variable names ¹​province_th, ²​province_en
…
