ISSS626-GAA - Take-Home Exercise 01
…
ℹ Use `spec()` to retrieve the full column specification for this data.
ℹ Specify the column types or set `show_col_types = FALSE` to quiet this message.

write_rds(thaiAccRaw, "data/rds/thaiAccRaw.rds")

The code chunk below will be used to import the saved thaiAccRaw.rds into R environment.

thaiAccRaw <- read_rds("data/rds/thaiAccRaw.rds") %>%
  rename(province = province_en)
list(thaiAccRaw)

[[1]]
# A tibble: 81,735 × 18
   acc_code incident_datetime   report_datetime     province_th province  agency
      <dbl> <dttm>              <dttm>              <chr>       <chr>     <chr> 
 1   571905 2019-01-01 00:00:00 2019-01-02 06:11:00 ลพบุรี        Loburi    depar…
 2  3790870 2019-01-01 00:03:00 2020-02-20 13:48:00 อุบลราชธานี   Ubon Rat… depar…
 3   599075 2019-01-01 00:05:00 2019-01-01 10:35:00 ประจวบคีรีขันธ์ Prachuap… depar…
 4   571924 2019-01-01 00:20:00 2019-01-02 05:12:00 เชียงใหม่     Chiang M… depar…
 5   599523 2019-01-01 00:25:00 2019-01-04 09:42:00 นครสวรรค์    Nakhon S… depar…
 6   571982 2019-01-01 00:30:00 2019-01-07 12:46:00 แม่ฮ่องสอน    Mae Hong… depar…
 7   612782 2019-01-01 00:30:00 2019-10-25 14:25:00 ชุมพร        Chumphon  depar…
 8   599235 2019-01-01 00:35:00 2019-01-02 16:23:00 สิงห์บุรี       Sing Buri depar…
 9   600643 2019-01-01 00:40:00 2019-01-11 10:01:00 สงขลา       Songkhla  depar…
10   599105 2019-01-01 00:45:00 2019-01-01 10:11:00 ตราด        Trat      depar…
# ℹ 81,725 more rows
# ℹ 12 more variables: route <chr>, vehicle_type <chr>, presumed_cause <chr>,
#   accident_type <chr>, number_of_vehicles_involved <dbl>,
#   number_of_fatalities <dbl>, number_of_injuries <dbl>,
#   weather_condition <chr>, latitude <dbl>, longitude <dbl>,
#   road_description <chr>, slope_description <chr>
…
4.1 Aspatial Data Wrangling

4.1.1 Removing Columns

It is likely that not all 18 columns are required/useful for our analysis, especially when some of the columns contain values that are not in English (province_th & route). On top of this, there are 2 date columns in the data set - incident_datetime which represents when the accident occurred, and report_datetime which represent when the accident was reported. For the accuracy of our analysis, we only want to focus on when the accident occurred. Hence, we will remove this column as well.

We will use the select() function from dplyr package to select the variables by index, and exclude the indexes of the columns that we want to remove.

thaiAccRaw <- thaiAccRaw %>%
  dplyr::select(1:2, 5:6, 8:18)
list(thaiAccRaw)

[[1]]
# A tibble: 81,735 × 15
   acc_code incident_datetime   province      agency vehicle_type presumed_cause
      <dbl> <dttm>              <chr>         <chr>  <chr>        <chr>         
 1   571905 2019-01-01 00:00:00 Loburi        depar… motorcycle   driving under…
 2  3790870 2019-01-01 00:03:00 Ubon Ratchat… depar… private/pas… speeding      
 3   599075 2019-01-01 00:05:00 Prachuap Khi… depar… motorcycle   speeding      
 4   571924 2019-01-01 00:20:00 Chiang Mai    depar… motorcycle   driving under…
 5   599523 2019-01-01 00:25:00 Nakhon Sawan  depar… private/pas… cutting in cl…
 6   571982 2019-01-01 00:30:00 Mae Hong Son  depar… motorcycle   speeding      
 7   612782 2019-01-01 00:30:00 Chumphon      depar… 4-wheel pic… failure to yi…
 8   599235 2019-01-01 00:35:00 Sing Buri     depar… motorcycle   speeding      
 9   600643 2019-01-01 00:40:00 Songkhla      depar… motorcycle   speeding      
10   599105 2019-01-01 00:45:00 Trat          depar… motorcycle   speeding      
# ℹ 81,725 more rows
# ℹ 9 more variables: accident_type <chr>, number_of_vehicles_involved <dbl>,
#   number_of_fatalities <dbl>, number_of_injuries <dbl>,
#   weather_condition <chr>, latitude <dbl>, longitude <dbl>,
#   road_description <chr>, slope_description <chr>
…
Link: https://www.thomascook.in/international-tourism/best-time-to-visit-bangkok#:~:text=The%20weather%20in%20Bangkok%20is,best%20time%20to%20visit%20Bangkok

thaiAccRaw <- thaiAccRaw %>%
  mutate(
    dayofweek = wday(incident_datetime, label = TRUE, abbr = TRUE),
    month = month(incident_datetime, label = TRUE, abbr = TRUE),
    season = case_when(
      month(incident_datetime) %in% c(1:2, 11:12) ~ "Winter", 
      month(incident_datetime)  %in% 3:6 ~ "Summer", 
      month(incident_datetime)  %in% 7:10 ~ "Rainy"))
list(thaiAccRaw)

[[1]]
# A tibble: 81,735 × 18
   acc_code incident_datetime   province      agency vehicle_type presumed_cause
      <dbl> <dttm>              <chr>         <chr>  <chr>        <chr>         
 1   571905 2019-01-01 00:00:00 Loburi        depar… motorcycle   driving under…
 2  3790870 2019-01-01 00:03:00 Ubon Ratchat… depar… private/pas… speeding      
 3   599075 2019-01-01 00:05:00 Prachuap Khi… depar… motorcycle   speeding      
 4   571924 2019-01-01 00:20:00 Chiang Mai    depar… motorcycle   driving under…
 5   599523 2019-01-01 00:25:00 Nakhon Sawan  depar… private/pas… cutting in cl…
 6   571982 2019-01-01 00:30:00 Mae Hong Son  depar… motorcycle   speeding      
 7   612782 2019-01-01 00:30:00 Chumphon      depar… 4-wheel pic… failure to yi…
 8   599235 2019-01-01 00:35:00 Sing Buri     depar… motorcycle   speeding      
 9   600643 2019-01-01 00:40:00 Songkhla      depar… motorcycle   speeding      
10   599105 2019-01-01 00:45:00 Trat          depar… motorcycle   speeding      
# ℹ 81,725 more rows
# ℹ 12 more variables: accident_type <chr>, number_of_vehicles_involved <dbl>,
#   number_of_fatalities <dbl>, number_of_injuries <dbl>,
#   weather_condition <chr>, latitude <dbl>, longitude <dbl>,
#   road_description <chr>, slope_description <chr>, dayofweek <ord>,
#   month <ord>, season <chr>
The output confirms that we have added 3 new columns.

4.1.3 Filter by Province

Note that thaiAccRaw has a total of 81,735 rows. We want to only focus on the study area (BMR) in our analysis. Hence, we will filter the province field to focus on the 6 provinces which are in the BMR: Bangkok, Nakhon Pathom, Pathum Thani, Nonthaburi, Samut Prakan and Samut Sakhon.

We will store these province names in a list and use it in our filter condition.

bmr <- c("Nakhon Pathom", "Pathum Thani", "Nonthaburi", "Samut Prakan", "Samut Sakhon", "Bangkok")
thaiAccRaw <- thaiAccRaw %>%
  filter(province %in% bmr)
list(thaiAccRaw)

[[1]]
# A tibble: 13,336 × 18
   acc_code incident_datetime   province      agency vehicle_type presumed_cause
      <dbl> <dttm>              <chr>         <chr>  <chr>        <chr>         
 1   571882 2019-01-01 02:25:00 Nakhon Pathom depar… motorcycle   speeding      
 2   600001 2019-01-01 03:00:00 Nonthaburi    depar… private/pas… speeding      
 3   605043 2019-01-01 03:00:00 Samut Prakan  depar… private/pas… running red l…
 4   629691 2019-01-01 03:05:00 Bangkok       expre… other        other         
 5   571887 2019-01-01 04:30:00 Nakhon Pathom depar… motorcycle   speeding      
 6   599234 2019-01-01 04:45:00 Samut Prakan  depar… motorcycle   driving under…
 7   599990 2019-01-01 05:30:00 Samut Sakhon  depar… motorcycle   speeding      
 8   612045 2019-01-01 05:30:00 Nonthaburi    depar… private/pas… cutting in cl…
 9   629689 2019-01-01 05:42:00 Bangkok       expre… other        other         
10   607046 2019-01-01 06:30:00 Pathum Thani  depar… private/pas… speeding      
# ℹ 13,326 more rows
# ℹ 12 more variables: accident_type <chr>, number_of_vehicles_involved <dbl>,
#   number_of_fatalities <dbl>, number_of_injuries <dbl>,
#   weather_condition <chr>, latitude <dbl>, longitude <dbl>,
#   road_description <chr>, slope_description <chr>, dayofweek <ord>,
#   month <ord>, season <chr>

Note that after the filter is applied, thaiAccRaw has been reduced to having only 13,336 rows.

4.1.4 Handling Missing Values

Moving forward, we will be utilizing two useful columns - latitude and longitude. Note that they are in decimal degree format.

The filter() function of dplyr package can be used to verify if these key columns have any missing values.

thaiAccRaw %>%
  filter(is.na(longitude) | longitude == "",
         is.na(latitude)  | latitude == "")

# A tibble: 350 × 18
   acc_code incident_datetime   province agency      vehicle_type presumed_cause
      <dbl> <dttm>              <chr>    <chr>       <chr>        <chr>         
 1  5099638 2021-01-01 21:33:00 Bangkok  expressway… other        other         
 2  5099647 2021-01-10 14:26:00 Bangkok  expressway… other        other         
 3  3014701 2021-01-14 22:15:00 Bangkok  expressway… other        other         
 4  5099676 2021-01-26 02:00:00 Bangkok  expressway… other        other         
 5  5099678 2021-01-26 13:50:00 Bangkok  expressway… other        other         
 6  5099677 2021-01-26 17:39:00 Bangkok  expressway… other        other         
 7  5099691 2021-02-02 11:07:00 Bangkok  expressway… other        other         
 8  5099698 2021-02-03 21:47:00 Bangkok  expressway… other        other         
 9  5099703 2021-02-05 09:32:00 Bangkok  expressway… other        other         
10  5099716 2021-02-09 13:04:00 Bangkok  expressway… other        other         
# ℹ 340 more rows
# ℹ 12 more variables: accident_type <chr>, number_of_vehicles_involved <dbl>,
#   number_of_fatalities <dbl>, number_of_injuries <dbl>,
#   weather_condition <chr>, latitude <dbl>, longitude <dbl>,
#   road_description <chr>, slope_description <chr>, dayofweek <ord>,
#   month <ord>, season <chr>
…
